<?xml version="1.0" encoding="UTF-8" standalone="no"?>
<!-- Created with Inkscape (http://www.inkscape.org/) -->
<svg
   xmlns:dc="http://purl.org/dc/elements/1.1/"
   xmlns:cc="http://creativecommons.org/ns#"
   xmlns:rdf="http://www.w3.org/1999/02/22-rdf-syntax-ns#"
   xmlns:svg="http://www.w3.org/2000/svg"
   xmlns="http://www.w3.org/2000/svg"
   xmlns:sodipodi="http://sodipodi.sourceforge.net/DTD/sodipodi-0.dtd"
   xmlns:inkscape="http://www.inkscape.org/namespaces/inkscape"
   width="1052.3622"
   height="744.09448"
   id="svg2"
   sodipodi:version="0.32"
   inkscape:version="0.46"
   version="1.0"
   sodipodi:docname="killamix.svg"
   inkscape:output_extension="org.inkscape.output.svg.inkscape">
  <defs
     id="defs4">
    <inkscape:perspective
       sodipodi:type="inkscape:persp3d"
       inkscape:vp_x="0 : 526.18109 : 1"
       inkscape:vp_y="0 : 1000 : 0"
       inkscape:vp_z="744.09448 : 526.18109 : 1"
       inkscape:persp3d-origin="372.04724 : 350.78739 : 1"
       id="perspective10" />
  </defs>
  <sodipodi:namedview
     id="base"
     pagecolor="#ffffff"
     bordercolor="#666666"
     borderopacity="1.0"
     inkscape:pageopacity="0.0"
     inkscape:pageshadow="2"
     inkscape:zoom="0.82386085"
     inkscape:cx="715.53346"
     inkscape:cy="372.04724"
     inkscape:document-units="px"
     inkscape:current-layer="layer2"
     showgrid="false"
     borderlayer="false"
     inkscape:window-width="1280"
     inkscape:window-height="974"
     inkscape:window-x="-1"
     inkscape:window-y="0" />
  <metadata
     id="metadata7">
    <rdf:RDF>
      <cc:Work
         rdf:about="">
        <dc:format>image/svg+xml</dc:format>
        <dc:type
           rdf:resource="http://purl.org/dc/dcmitype/StillImage" />
      </cc:Work>
    </rdf:RDF>
  </metadata>
  <g
     inkscape:label="Calque 1"
     inkscape:groupmode="layer"
     id="layer1">
    <rect
       style="fill:#e2e2e2;fill-opacity:1;fill-rule:evenodd;stroke:#000000;stroke-width:1.03549588px;stroke-linecap:butt;stroke-linejoin:miter;stroke-opacity:1"
       id="rect2383"
       width="998.96448"
       height="148.53593"
       x="31.446314"
       y="269.82654" />
  </g>
  <g
     inkscape:groupmode="layer"
     id="layer2"
     inkscape:label="boutons">
    <path
       sodipodi:type="arc"
       style="fill:#060606;fill-opacity:1;stroke:#000000;stroke-opacity:1"
       id="path3155"
       sodipodi:cx="141.42857"
       sodipodi:cy="-130.19124"
       sodipodi:rx="30"
       sodipodi:ry="31.428572"
       d="M 171.42857,-130.19124 A 30,31.428572 0 1 1 111.42857,-130.19124 A 30,31.428572 0 1 1 171.42857,-130.19124 z"
       transform="matrix(0.8350743,0,0,0.7825935,-52.603371,453.86631)" />
    <path
       transform="matrix(0.8350743,0,0,0.7825935,33.110917,428.5806)"
       d="M 171.42857,-130.19124 A 30,31.428572 0 1 1 111.42857,-130.19124 A 30,31.428572 0 1 1 171.42857,-130.19124 z"
       sodipodi:ry="31.428572"
       sodipodi:rx="30"
       sodipodi:cy="-130.19124"
       sodipodi:cx="141.42857"
       id="path3157"
       style="fill:#d2d2d2;fill-opacity:1;stroke:#000000;stroke-opacity:1"
       sodipodi:type="arc" />
    <path
       transform="matrix(0.8350743,0,0,0.7825935,136.16449,428.5806)"
       d="M 171.42857,-130.19124 A 30,31.428572 0 1 1 111.42857,-130.19124 A 30,31.428572 0 1 1 171.42857,-130.19124 z"
       sodipodi:ry="31.428572"
       sodipodi:rx="30"
       sodipodi:cy="-130.19124"
       sodipodi:cx="141.42857"
       id="path3159"
       style="fill:#d2d2d2;fill-opacity:1;stroke:#000000;stroke-opacity:1"
       sodipodi:type="arc" />
    <path
       sodipodi:type="arc"
       style="fill:#d2d2d2;fill-opacity:1;stroke:#000000;stroke-opacity:1"
       id="path3161"
       sodipodi:cx="141.42857"
       sodipodi:cy="-130.19124"
       sodipodi:rx="30"
       sodipodi:ry="31.428572"
       d="M 171.42857,-130.19124 A 30,31.428572 0 1 1 111.42857,-130.19124 A 30,31.428572 0 1 1 171.42857,-130.19124 z"
       transform="matrix(0.8350743,0,0,0.7825935,239.21804,428.5806)" />
    <path
       sodipodi:type="arc"
       style="fill:#d2d2d2;fill-opacity:1;stroke:#000000;stroke-opacity:1"
       id="path3163"
       sodipodi:cx="141.42857"
       sodipodi:cy="-130.19124"
       sodipodi:rx="30"
       sodipodi:ry="31.428572"
       d="M 171.42857,-130.19124 A 30,31.428572 0 1 1 111.42857,-130.19124 A 30,31.428572 0 1 1 171.42857,-130.19124 z"
       transform="matrix(0.8350743,0,0,0.7825935,342.27164,428.5806)" />
    <path
       transform="matrix(0.8350743,0,0,0.7825935,445.32519,428.5806)"
       d="M 171.42857,-130.19124 A 30,31.428572 0 1 1 111.42857,-130.19124 A 30,31.428572 0 1 1 171.42857,-130.19124 z"
       sodipodi:ry="31.428572"
       sodipodi:rx="30"
       sodipodi:cy="-130.19124"
       sodipodi:cx="141.42857"
       id="path3165"
       style="fill:#d2d2d2;fill-opacity:1;stroke:#000000;stroke-opacity:1"
       sodipodi:type="arc" />
    <path
       transform="matrix(0.8350743,0,0,0.7825935,548.37876,428.5806)"
       d="M 171.42857,-130.19124 A 30,31.428572 0 1 1 111.42857,-130.19124 A 30,31.428572 0 1 1 171.42857,-130.19124 z"
       sodipodi:ry="31.428572"
       sodipodi:rx="30"
       sodipodi:cy="-130.19124"
       sodipodi:cx="141.42857"
       id="path3167"
       style="fill:#d2d2d2;fill-opacity:1;stroke:#000000;stroke-opacity:1"
       sodipodi:type="arc" />
    <path
       sodipodi:type="arc"
       style="fill:#d2d2d2;fill-opacity:1;stroke:#000000;stroke-opacity:1"
       id="path3169"
       sodipodi:cx="141.42857"
       sodipodi:cy="-130.19124"
       sodipodi:rx="30"
       sodipodi:ry="31.428572"
       d="M 171.42857,-130.19124 A 30,31.428572 0 1 1 111.42857,-130.19124 A 30,31.428572 0 1 1 171.42857,-130.19124 z"
       transform="matrix(0.8350743,0,0,0.7825935,651.43232,428.5806)" />
    <path
       transform="matrix(0.8350743,0,0,0.7825935,754.48592,428.5806)"
       d="M 171.42857,-130.19124 A 30,31.428572 0 1 1 111.42857,-130.19124 A 30,31.428572 0 1 1 171.42857,-130.19124 z"
       sodipodi:ry="31.428572"
       sodipodi:rx="30"
       sodipodi:cy="-130.19124"
       sodipodi:cx="141.42857"
       id="path3171"
       style="fill:#d2d2d2;fill-opacity:1;stroke:#000000;stroke-opacity:1"
       sodipodi:type="arc" />
    <path
       sodipodi:type="arc"
       style="fill:#d2d2d2;fill-opacity:1;stroke:#000000;stroke-opacity:1"
       id="path3173"
       sodipodi:cx="141.42857"
       sodipodi:cy="-130.19124"
       sodipodi:rx="30"
       sodipodi:ry="31.428572"
       d="M 171.42857,-130.19124 A 30,31.428572 0 1 1 111.42857,-130.19124 A 30,31.428572 0 1 1 171.42857,-130.19124 z"
       transform="matrix(0.8350743,0,0,0.7825935,857.53947,428.5806)" />
    <rect
       style="fill:#d2d2d2;fill-opacity:1;stroke:#000000;stroke-width:0.67632848;stroke-opacity:1"
       id="rect3186"
       width="19.323671"
       height="19.323671"
       x="141.55244"
       y="374.46597" />
    <rect
       style="fill:#d2d2d2;fill-opacity:1;stroke:#000000;stroke-width:0.67632848;stroke-opacity:1"
       id="rect3188"
       width="19.323671"
       height="19.323671"
       x="244.60602"
       y="374.46597" />
    <rect
       style="fill:#d2d2d2;fill-opacity:1;stroke:#000000;stroke-width:0.67632848;stroke-opacity:1"
       id="rect3190"
       width="19.323671"
       height="19.323671"
       x="347.65961"
       y="374.46597" />
    <rect
       style="fill:#d2d2d2;fill-opacity:1;stroke:#000000;stroke-width:0.67632848;stroke-opacity:1"
       id="rect3192"
       width="19.323671"
       height="19.323671"
       x="450.71317"
       y="374.46597" />
    <rect
       style="fill:#d2d2d2;fill-opacity:1;stroke:#000000;stroke-width:0.67632848;stroke-opacity:1"
       id="rect3194"
       width="19.323671"
       height="19.323671"
       x="553.76672"
       y="374.46597" />
    <rect
       style="fill:#d2d2d2;fill-opacity:1;stroke:#000000;stroke-width:0.67632848;stroke-opacity:1"
       id="rect3196"
       width="19.323671"
       height="19.323671"
       x="656.82031"
       y="374.46597" />
    <rect
       style="fill:#d2d2d2;fill-opacity:1;stroke:#000000;stroke-width:0.67632848;stroke-opacity:1"
       id="rect3198"
       width="19.323671"
       height="19.323671"
       x="759.87384"
       y="374.46597" />
    <rect
       style="fill:#d2d2d2;fill-opacity:1;stroke:#000000;stroke-width:0.67632848;stroke-opacity:1"
       id="rect3200"
       width="19.323671"
       height="19.323671"
       x="862.92743"
       y="374.46597" />
    <rect
       style="fill:#d2d2d2;fill-opacity:1;stroke:#000000;stroke-width:0.67632848;stroke-opacity:1"
       id="rect3202"
       width="19.323671"
       height="19.323671"
       x="965.98102"
       y="374.46597" />
    <path
       transform="matrix(0.4099906,0,0,0.3913547,7.5156104,402.93044)"
       d="M 171.42857,-130.19124 A 30,31.428572 0 1 1 111.42857,-130.19124 A 30,31.428572 0 1 1 171.42857,-130.19124 z"
       sodipodi:ry="31.428572"
       sodipodi:rx="30"
       sodipodi:cy="-130.19124"
       sodipodi:cx="141.42857"
       id="path3204"
       style="fill:#d2d2d2;fill-opacity:1;stroke:#000000;stroke-opacity:0.46885246000000003;stroke-width:24.71763039;stroke-miterlimit:4;stroke-dasharray:none"
       sodipodi:type="arc" />
    <text
       xml:space="preserve"
       style="font-size:40px;font-style:normal;font-weight:normal;fill:#000000;fill-opacity:1;stroke:none;stroke-width:1px;stroke-linecap:butt;stroke-linejoin:miter;stroke-opacity:1;font-family:Bitstream Vera Sans"
       x="146.86946"
       y="371.03116"
       id="text3226"><tspan
         sodipodi:role="line"
         id="tspan3228"
         x="146.86946"
         y="371.03116"
         style="font-size:24px;font-style:normal;font-variant:normal;font-weight:bold;font-stretch:normal;font-family:Ubuntu Titling;-inkscape-font-specification:Ubuntu Titling Bold">1</tspan></text>
    <text
       id="text3230"
       y="371.03116"
       x="248.86946"
       style="font-size:40px;font-style:normal;font-weight:normal;fill:#000000;fill-opacity:1;stroke:none;stroke-width:1px;stroke-linecap:butt;stroke-linejoin:miter;stroke-opacity:1;font-family:Bitstream Vera Sans"
       xml:space="preserve"><tspan
         style="font-size:24px;font-style:normal;font-variant:normal;font-weight:bold;font-stretch:normal;font-family:Ubuntu Titling;-inkscape-font-specification:Ubuntu Titling Bold"
         y="371.03116"
         x="248.86946"
         id="tspan3232"
         sodipodi:role="line">2</tspan></text>
    <text
       xml:space="preserve"
       style="font-size:40px;font-style:normal;font-weight:normal;fill:#000000;fill-opacity:1;stroke:none;stroke-width:1px;stroke-linecap:butt;stroke-linejoin:miter;stroke-opacity:1;font-family:Bitstream Vera Sans"
       x="355.64258"
       y="362.96216"
       id="text3234"><tspan
         sodipodi:role="line"
         id="tspan3236"
         x="355.64258"
         y="362.96216" /></text>
    <text
       xml:space="preserve"
       style="font-size:40px;font-style:normal;font-weight:normal;fill:#000000;fill-opacity:1;stroke:none;stroke-width:1px;stroke-linecap:butt;stroke-linejoin:miter;stroke-opacity:1;font-family:Bitstream Vera Sans"
       x="350.79144"
       y="370.52036"
       id="text3238"><tspan
         sodipodi:role="line"
         id="tspan3240"
         x="350.79144"
         y="370.52036"
         style="font-size:24px;font-style:normal;font-variant:normal;font-weight:bold;font-stretch:normal;font-family:Ubuntu Titling;-inkscape-font-specification:Ubuntu Titling Bold">3</tspan></text>
    <text
       id="text3242"
       y="370.52036"
       x="452.79144"
       style="font-size:40px;font-style:normal;font-weight:normal;fill:#000000;fill-opacity:1;stroke:none;stroke-width:1px;stroke-linecap:butt;stroke-linejoin:miter;stroke-opacity:1;font-family:Bitstream Vera Sans"
       xml:space="preserve"><tspan
         style="font-size:24px;font-style:normal;font-variant:normal;font-weight:bold;font-stretch:normal;font-family:Ubuntu Titling;-inkscape-font-specification:Ubuntu Titling Bold"
         y="370.52036"
         x="452.79144"
         id="tspan3244"
         sodipodi:role="line">4</tspan></text>
    <text
       xml:space="preserve"
       style="font-size:40px;font-style:normal;font-weight:normal;fill:#000000;fill-opacity:1;stroke:none;stroke-width:1px;stroke-linecap:butt;stroke-linejoin:miter;stroke-opacity:1;font-family:Bitstream Vera Sans"
       x="555.92316"
       y="370.52036"
       id="text3246"><tspan
         sodipodi:role="line"
         id="tspan3248"
         x="555.92316"
         y="370.52036"
         style="font-size:24px;font-style:normal;font-variant:normal;font-weight:bold;font-stretch:normal;font-family:Ubuntu Titling;-inkscape-font-specification:Ubuntu Titling Bold">5</tspan></text>
    <text
       id="text3250"
       y="370.52036"
       x="657.92322"
       style="font-size:40px;font-style:normal;font-weight:normal;fill:#000000;fill-opacity:1;stroke:none;stroke-width:1px;stroke-linecap:butt;stroke-linejoin:miter;stroke-opacity:1;font-family:Bitstream Vera Sans"
       xml:space="preserve"><tspan
         style="font-size:24px;font-style:normal;font-variant:normal;font-weight:bold;font-stretch:normal;font-family:Ubuntu Titling;-inkscape-font-specification:Ubuntu Titling Bold"
         y="370.52036"
         x="657.92322"
         id="tspan3252"
         sodipodi:role="line">6</tspan></text>
    <text
       xml:space="preserve"
       style="font-size:40px;font-style:normal;font-weight:normal;fill:#000000;fill-opacity:1;stroke:none;stroke-width:1px;stroke-linecap:butt;stroke-linejoin:miter;stroke-opacity:1;font-family:Bitstream Vera Sans"
       x="763.48248"
       y="370.52036"
       id="text3254"><tspan
         sodipodi:role="line"
         id="tspan3256"
         x="763.48248"
         y="370.52036"
         style="font-size:24px;font-style:normal;font-variant:normal;font-weight:bold;font-stretch:normal;font-family:Ubuntu Titling;-inkscape-font-specification:Ubuntu Titling Bold">7</tspan></text>
    <text
       id="text3258"
       y="370.52036"
       x="865.48254"
       style="font-size:40px;font-style:normal;font-weight:normal;fill:#000000;fill-opacity:1;stroke:none;stroke-width:1px;stroke-linecap:butt;stroke-linejoin:miter;stroke-opacity:1;font-family:Bitstream Vera Sans"
       xml:space="preserve"><tspan
         style="font-size:24px;font-style:normal;font-variant:normal;font-weight:bold;font-stretch:normal;font-family:Ubuntu Titling;-inkscape-font-specification:Ubuntu Titling Bold"
         y="370.52036"
         x="865.48254"
         id="tspan3260"
         sodipodi:role="line">8</tspan></text>
    <text
       id="text3266"
       y="370.52036"
       x="967.44153"
       style="font-size:40px;font-style:normal;font-weight:normal;fill:#000000;fill-opacity:1;stroke:none;stroke-width:1px;stroke-linecap:butt;stroke-linejoin:miter;stroke-opacity:1;font-family:Bitstream Vera Sans"
       xml:space="preserve"><tspan
         style="font-size:24px;font-style:normal;font-variant:normal;font-weight:bold;font-stretch:normal;font-family:Ubuntu Titling;-inkscape-font-specification:Ubuntu Titling Bold"
         y="370.52036"
         x="967.44153"
         id="tspan3268"
         sodipodi:role="line">9</tspan></text>
  </g>
</svg>
